thesis/experiments/rust-hls-experiments/keccak_rust_speed/trace_abc.vcd
$timescale 1 ps $end
$scope module uut $end
$var wire 1 ! clk $end
$var wire 1 " reset $end
$var wire 1 # start_port $end
$var wire 32 $ input_pointer $end
$var wire 64 % m_rdata_ram $end
$var wire 1 & m_data_rdy $end
$var wire 1 ' done_port $end
$var wire 1 ( mout_oe_ram $end
$var wire 1 ) mout_we_ram $end
$var wire 32 * mout_addr_ram $end
$var wire 64 + mout_wdata_ram $end
$var wire 7 , mout_data_ram_size $end
$upscope $end
$enddefinitions $end
$dumpvars
0!
1"
1#
b00000000000000000000000000000000 $
b0000000000000000000000000000000011011110101011011011111011101111 %
0&
0'
1(
0)
b00000000000000000000000000000000 *
b0000000000000000000000000000000000000000000000000000000000000000 +
b1000000 ,
$end
#500
1!
b00000000000000000000000000101000 *
#500
#1000
0!
#1000
b1111000100100101100011110111100101000000111000011101110111100111 %
#1500
1!
b00000000000000000000000001010000 *
#1500
#2000
0!
#2000
b1111111110010111101001000010110101111111100011100110111111010100 %
#2500
1!
b00000000000000000000000001111000 *
#2500
#3000
0!
#3000
b1110101101011010101010010011111100100011000101111101011000110101 %
#3500
1!
b00000000000000000000000010100000 *
#3500
#4000
0!
#4000
b0000010111100101011000110101101000100001110110011010111001100001 %
#4500
1!
b00000000000000000000000000001000 *
#4500
#5000
0!
#5000
b1001010000001100011110010010001010101110001110100010011000010100 %
#5500
1!
b00000000000000000000000000110000 *
#5500
#6000
0!
#6000
b1000010011010101110011001111100100110011110000000100011110001010 %
#6500
1!
b00000000000000000000000001011000 *
#6500
#7000
0!
#7000
b1001000011111110111001011010000010100100010001100100011111000100 %
#7500
1!
b00000000000000000000000010000000 *
#7500
#8000
0!
#8000
b1010100110100110111001100010011000001101011100010010000100000011 %
#8500
1!
b00000000000000000000000010101000 *
#8500
#9000
0!
#9000
b0110010010111110111111101111001010001100110010010111000011110010 %
#9500
1!
b00000000000000000000000000010000 *
#9500
#10000
0!
#10000
b0001100001000001111110010010010010100010110001010000100111100100 %
#10500
1!
b00000000000000000000000000111000 *
#10500
#11000
0!
#11000
b1101010110011000001001100001111010100110010110101010100111101110 %
#11500
1!
b00000000000000000000000001100000 *
#11500
#12000
0!
#12000
b1000110001011011110110100000110011010110000110010010111001110110 %
#12500
1!
b00000000000000000000000010001000 *
#12500
#13000
0!
#13000
b1000000110100101011111000001011011011011110011110101010101011111 %
#13500
1!
b00000000000000000000000010110000 *
#13500
#14000
0!
#14000
b0110000100110110011100001001010101111011110001000110011000010001 %
#14500
1!
b00000000000000000000000000011000 *
#14500
#15000
0!
#15000
b0001011011110101001101010010011011100111000001000110010111000010 %
#15500
1!
b00000000000000000000000001000000 *
#15500
#16000
0!
#16000
b1011110100010101010001110011000001101111100000000100100101001101 %
#16500
1!
b00000000000000000000000001101000 *
#16500
#17000
0!
#17000
b1010110100110000101001101111011100011011000110010000010110011100 %
#17500
1!
b00000000000000000000000010010000 *
#17500
#18000
0!
#18000
b0100001110111000001100011100110100000011010001111100100000100110 %
#18500
1!
b00000000000000000000000010111000 *
#18500
#19000
0!
#19000
b1011100001111100010110100101010101001111110100000000111011001011 %
#19500
1!
b00000000000000000000000000100000 *
#19500
#20000
0!
#20000
b0111010111110110010001001110100101111111001100001010000100111011 %
#20500
1!
b00000000000000000000000001001000 *
#20500
#21000
0!
#21000
b1000101100101000010011100000010101100010010100111101000001010111 %
#21500
1!
b00000000000000000000000001110000 *
#21500
#22000
0!
#22000
b0011000010010011010110101011011111010000100011111111110001100100 %
#22500
1!
b00000000000000000000000010011000 *
#22500
#23000
0!
#23000
b0000000111110010001011110001101000010001101001010101011010011111 %
#23500
1!
b00000000000000000000000011000000 *
#23500
#24000
0!
#24000
b1000110000111110111010001000101000011100110011110011001011001000 %
#24500
1!
0(
b00000000000000000000000000000000 *
b0000000 ,
#24500
#25000
0!
#25000
b1110101011110001111111110111101101011100111011001010001001001001 %
#25500
1!
#25500
#26000
0!
#26000
b1111000100100101100011110111100101000000111000011101110111100111 %
