thesis/experiments/rust-hls-experiments/keccak_crates_speed/keccak_crates_speed.vcd
$timescale 1 ps $end
$scope module uut $end
$var wire 1 ! clk $end
$var wire 1 " reset $end
$var wire 1 # start_port $end
$var wire 32 $ input_pointer $end
$var wire 64 % m_rdata_ram $end
$var wire 1 & m_data_rdy $end
$var wire 1 ' done_port $end
$var wire 1 ( mout_oe_ram $end
$var wire 1 ) mout_we_ram $end
$var wire 32 * mout_addr_ram $end
$var wire 64 + mout_wdata_ram $end
$var wire 7 , mout_data_ram_size $end
$upscope $end
$enddefinitions $end
$dumpvars
0!
1"
1#
b00000000000000000000000000000000 $
b0000000000000000000000000000000011011110101011011011111011101111 %
0&
0'
1(
0)
b00000000000000000000000000000000 *
b0000000000000000000000000000000000000000000000000000000000000000 +
b1000000 ,
$end
#500
1!
b00000000000000000000000000101000 *
#500
#1000
0!
#1000
b1111000100100101100011110111100101000000111000011101110111100111 %
#1500
1!
b00000000000000000000000001010000 *
#1500
#2000
0!
#2000
b1111111110010111101001000010110101111111100011100110111111010100 %
#2500
1!
b00000000000000000000000001111000 *
#2500
#3000
0!
#3000
b1110101101011010101010010011111100100011000101111101011000110101 %
#3500
1!
b00000000000000000000000010100000 *
#3500
#4000
0!
#4000
b0000010111100101011000110101101000100001110110011010111001100001 %
#4500
1!
b00000000000000000000000000001000 *
#4500
#5000
0!
#5000
b1001010000001100011110010010001010101110001110100010011000010100 %
#5500
1!
b00000000000000000000000000110000 *
#5500
#6000
0!
#6000
b1000010011010101110011001111100100110011110000000100011110001010 %
#6500
1!
b00000000000000000000000001011000 *
#6500
#7000
0!
#7000
b1001000011111110111001011010000010100100010001100100011111000100 %
#7500
1!
b00000000000000000000000010000000 *
#7500
#8000
0!
#8000
b1010100110100110111001100010011000001101011100010010000100000011 %
#8500
1!
b00000000000000000000000010101000 *
#8500
#9000
0!
#9000
b0110010010111110111111101111001010001100110010010111000011110010 %
#9500
1!
b00000000000000000000000000010000 *
#9500
#10000
0!
#10000
b0001100001000001111110010010010010100010110001010000100111100100 %
#10500
1!
b00000000000000000000000000111000 *
#10500
#11000
0!
#11000
b1101010110011000001001100001111010100110010110101010100111101110 %
#11500
1!
b00000000000000000000000001100000 *
#11500
#12000
0!
#12000
b1000110001011011110110100000110011010110000110010010111001110110 %
#12500
1!
b00000000000000000000000010001000 *
#12500
#13000
0!
#13000
b1000000110100101011111000001011011011011110011110101010101011111 %
#13500
1!
b00000000000000000000000010110000 *
#13500
#14000
0!
#14000
b0110000100110110011100001001010101111011110001000110011000010001 %
#14500
1!
b00000000000000000000000000011000 *
#14500
#15000
0!
#15000
b0001011011110101001101010010011011100111000001000110010111000010 %
#15500
1!
b00000000000000000000000001000000 *
#15500
#16000
0!
#16000
b1011110100010101010001110011000001101111100000000100100101001101 %
#16500
1!
b00000000000000000000000001101000 *
#16500
#17000
0!
#17000
b1010110100110000101001101111011100011011000110010000010110011100 %
#17500
1!
b00000000000000000000000010010000 *
#17500
#18000
0!
#18000
b0100001110111000001100011100110100000011010001111100100000100110 %
#18500
1!
b00000000000000000000000010111000 *
#18500
#19000
0!
#19000
b1011100001111100010110100101010101001111110100000000111011001011 %
#19500
1!
b00000000000000000000000000100000 *
#19500
#20000
0!
#20000
b0111010111110110010001001110100101111111001100001010000100111011 %
#20500
1!
b00000000000000000000000001001000 *
#20500
#21000
0!
#21000
b1000101100101000010011100000010101100010010100111101000001010111 %
#21500
1!
b00000000000000000000000001110000 *
#21500
#22000
0!
#22000
b0011000010010011010110101011011111010000100011111111110001100100 %
#22500
1!
b00000000000000000000000010011000 *
#22500
#23000
0!
#23000
b0000000111110010001011110001101000010001101001010101011010011111 %
#23500
1!
b00000000000000000000000011000000 *
#23500
#24000
0!
#24000
b1000110000111110111010001000101000011100110011110011001011001000 %
#24500
1!
0(
b00000000000000000000000000000000 *
b0000000 ,
#24500
#25000
0!
#25000
b1110101011110001111111110111101101011100111011001010001001001001 %
#25500
1!
1(
b00000000000000000000000100000000 *
b1000000 ,
#25500
#26000
0!
#26000
b1111000100100101100011110111100101000000111000011101110111100111 %
#26500
1!
0(
b00000000000000000000000000000000 *
b0000000 ,
#26500
#27000
0!
#27000
b1000110001011011110110100000110011010110000110010010111001110110 %
#27500
1!
1(
b00000000000000000000000100001000 *
b1000000 ,
#27500
#28000
0!
#28000
b1111000100100101100011110111100101000000111000011101110111100111 %
#28500
1!
0(
b00000000000000000000000000000000 *
b0000000 ,
#28500
#29000
0!
#29000
b1010110100110000101001101111011100011011000110010000010110011100 %
#29500
1!
1(
b00000000000000000000000100010000 *
b1000000 ,
#29500
#30000
0!
#30000
b1111000100100101100011110111100101000000111000011101110111100111 %
#30500
1!
0(
b00000000000000000000000000000000 *
b0000000 ,
#30500
#31000
0!
#31000
b0011000010010011010110101011011111010000100011111111110001100100 %
#31500
1!
1(
b00000000000000000000000100011000 *
b1000000 ,
#31500
#32000
0!
#32000
b1111000100100101100011110111100101000000111000011101110111100111 %
#32500
1!
0(
b00000000000000000000000000000000 *
b0000000 ,
#32500
#33000
0!
#33000
b1110101101011010101010010011111100100011000101111101011000110101 %
#33500
1!
1(
b00000000000000000000000100100000 *
b1000000 ,
#33500
#34000
0!
#34000
b1111000100100101100011110111100101000000111000011101110111100111 %
#34500
1!
0(
b00000000000000000000000000000000 *
b0000000 ,
#34500
#35000
0!
#35000
b1010100110100110111001100010011000001101011100010010000100000011 %
#35500
1!
1(
b00000000000000000000000100101000 *
b1000000 ,
#35500
#36000
0!
#36000
b1111000100100101100011110111100101000000111000011101110111100111 %
#36500
1!
0(
b00000000000000000000000000000000 *
b0000000 ,
#36500
#37000
0!
#37000
b1000000110100101011111000001011011011011110011110101010101011111 %
#37500
1!
1(
b00000000000000000000000100110000 *
b1000000 ,
#37500
#38000
0!
#38000
b1111000100100101100011110111100101000000111000011101110111100111 %
#38500
1!
0(
b00000000000000000000000000000000 *
b0000000 ,
#38500
#39000
0!
#39000
b0100001110111000001100011100110100000011010001111100100000100110 %
#39500
1!
1(
b00000000000000000000000100111000 *
b1000000 ,
#39500
#40000
0!
#40000
b1111000100100101100011110111100101000000111000011101110111100111 %
#40500
1!
0(
b00000000000000000000000000000000 *
b0000000 ,
#40500
#41000
0!
#41000
b0000000111110010001011110001101000010001101001010101011010011111 %
#41500
1!
1(
b00000000000000000000000101000000 *
b1000000 ,
#41500
#42000
0!
#42000
b1111000100100101100011110111100101000000111000011101110111100111 %
#42500
1!
0(
b00000000000000000000000000000000 *
b0000000 ,
#42500
#43000
0!
#43000
b0000010111100101011000110101101000100001110110011010111001100001 %
#43500
1!
1(
b00000000000000000000000101001000 *
b1000000 ,
#43500
#44000
0!
#44000
b1111000100100101100011110111100101000000111000011101110111100111 %
#44500
1!
0(
b00000000000000000000000000000000 *
b0000000 ,
#44500
#45000
0!
#45000
b0110010010111110111111101111001010001100110010010111000011110010 %
#45500
1!
1(
b00000000000000000000000101010000 *
b1000000 ,
#45500
#46000
0!
#46000
b1111000100100101100011110111100101000000111000011101110111100111 %
#46500
1!
0(
b00000000000000000000000000000000 *
b0000000 ,
#46500
#47000
0!
#47000
b0110000100110110011100001001010101111011110001000110011000010001 %
#47500
1!
1(
b00000000000000000000000101011000 *
b1000000 ,
#47500
#48000
0!
#48000
b1111000100100101100011110111100101000000111000011101110111100111 %
#48500
1!
0(
b00000000000000000000000000000000 *
b0000000 ,
#48500
#49000
0!
#49000
b1011100001111100010110100101010101001111110100000000111011001011 %
#49500
1!
1(
b00000000000000000000000101100000 *
b1000000 ,
#49500
#50000
0!
#50000
b1111000100100101100011110111100101000000111000011101110111100111 %
#50500
1!
0(
b00000000000000000000000000000000 *
b0000000 ,
#50500
#51000
0!
#51000
b1000110000111110111010001000101000011100110011110011001011001000 %
#51500
1!
1(
b00000000000000000000000101101000 *
b1000000 ,
#51500
#52000
0!
#52000
b1111000100100101100011110111100101000000111000011101110111100111 %
#52500
1!
0(
b00000000000000000000000000000000 *
b0000000 ,
#52500
#53000
0!
#53000
b1001010000001100011110010010001010101110001110100010011000010100 %
#53500
1!
1(
b00000000000000000000000101110000 *
b1000000 ,
#53500
#54000
0!
#54000
b1111000100100101100011110111100101000000111000011101110111100111 %
#54500
1!
0(
b00000000000000000000000000000000 *
b0000000 ,
#54500
#55000
0!
#55000
b0001100001000001111110010010010010100010110001010000100111100100 %
#55500
1!
1(
b00000000000000000000000101111000 *
b1000000 ,
#55500
#56000
0!
#56000
b1111000100100101100011110111100101000000111000011101110111100111 %
#56500
1!
0(
b00000000000000000000000000000000 *
b0000000 ,
#56500
#57000
0!
#57000
b0001011011110101001101010010011011100111000001000110010111000010 %
#57500
1!
1(
b00000000000000000000000110000000 *
b1000000 ,
#57500
#58000
0!
#58000
b1111000100100101100011110111100101000000111000011101110111100111 %
#58500
1!
0(
b00000000000000000000000000000000 *
b0000000 ,
#58500
#59000
0!
#59000
b0111010111110110010001001110100101111111001100001010000100111011 %
#59500
1!
1(
b00000000000000000000000110001000 *
b1000000 ,
#59500
#60000
0!
#60000
b1111000100100101100011110111100101000000111000011101110111100111 %
#60500
1!
0(
b00000000000000000000000000000000 *
b0000000 ,
#60500
#61000
0!
#61000
b1110101011110001111111110111101101011100111011001010001001001001 %
#61500
1!
1(
b00000000000000000000000110010000 *
b1000000 ,
#61500
#62000
0!
#62000
b1111000100100101100011110111100101000000111000011101110111100111 %
#62500
1!
0(
b00000000000000000000000000000000 *
b0000000 ,
#62500
#63000
0!
#63000
#63500
1!
1(
b00000000000000000000000110011000 *
b1000000 ,
#63500
#64000
0!
#64000
#64500
1!
0(
b00000000000000000000000000000000 *
b0000000 ,
#64500
#65000
0!
#65000
b1000010011010101110011001111100100110011110000000100011110001010 %
#65500
1!
1(
b00000000000000000000000110100000 *
b1000000 ,
#65500
#66000
0!
#66000
b1111000100100101100011110111100101000000111000011101110111100111 %
#66500
1!
0(
b00000000000000000000000000000000 *
b0000000 ,
#66500
#67000
0!
#67000
b1101010110011000001001100001111010100110010110101010100111101110 %
#67500
1!
1(
b00000000000000000000000110101000 *
b1000000 ,
#67500
#68000
0!
#68000
b1111000100100101100011110111100101000000111000011101110111100111 %
#68500
1!
0(
b00000000000000000000000000000000 *
b0000000 ,
#68500
#69000
0!
#69000
b1011110100010101010001110011000001101111100000000100100101001101 %
#69500
1!
1(
b00000000000000000000000110110000 *
b1000000 ,
#69500
#70000
0!
#70000
b1111000100100101100011110111100101000000111000011101110111100111 %
#70500
1!
0(
b00000000000000000000000000000000 *
b0000000 ,
#70500
#71000
0!
#71000
b1000101100101000010011100000010101100010010100111101000001010111 %
#71500
1!
1(
b00000000000000000000000110111000 *
b1000000 ,
#71500
#72000
0!
#72000
b1111000100100101100011110111100101000000111000011101110111100111 %
#72500
1!
0(
b00000000000000000000000000000000 *
b0000000 ,
#72500
#73000
0!
#73000
b1111111110010111101001000010110101111111100011100110111111010100 %
#73500
1!
1)
b0010110101011100100101010100110111111001011011101100101100111100 +
b1000000 ,
#73500
#74000
0!
#74000
b1111000100100101100011110111100101000000111000011101110111100111 %
#74500
1!
b00000000000000000000000000101000 *
b1111100101010111101110011010001011011010011001011111101100111000 +
#74500
#75000
0!
#75000
#75500
1!
b00000000000000000000000001010000 *
b0110100011001110011000011011011010111001110011100110100010100001 +
#75500
#76000
0!
#76000
b1111111110010111101001000010110101111111100011100110111111010100 %
#76500
1!
b00000000000000000000000001111000 *
b1111110101010100010010011010011010111111000101110100011101000011 +
#76500
#77000
0!
#77000
b1110101101011010101010010011111100100011000101111101011000110101 %
#77500
1!
b00000000000000000000000010100000 *
b1001000000001110001100010010100111100111101110101101110101111011 +
#77500
#78000
0!
#78000
b0000010111100101011000110101101000100001110110011010111001100001 %
#78500
1!
b00000000000000000000000000001000 *
b0110101000110011001011001101000001110000010101111011010101101101 +
#78500
#79000
0!
#79000
b1001010000001100011110010010001010101110001110100010011000010100 %
#79500
1!
b00000000000000000000000000110000 *
b1000010101110111001111011010111000010010011101011010111100001101 +
#79500
#80000
0!
#80000
b1000010011010101110011001111100100110011110000000100011110001010 %
#80500
1!
b00000000000000000000000001011000 *
b1101111011101010011001101100010010111010100011111001011101001111 +
#80500
#81000
0!
#81000
b1001000011111110111001011010000010100100010001100100011111000100 %
#81500
1!
b00000000000000000000000010000000 *
b1001011111011101101011010011001111011000100110010100101101000000 +
#81500
#82000
0!
#82000
b1010100110100110111001100010011000001101011100010010000100000011 %
#82500
1!
b00000000000000000000000010101000 *
b0010000000101010100111101100010111111010101000111100110011101000 +
#82500
#83000
0!
#83000
b0110010010111110111111101111001010001100110010010111000011110010 %
#83500
1!
b00000000000000000000000000010000 *
b0000100100111101100011010001001001110000110101110110101101101100 +
#83500
#84000
0!
#84000
b0001100001000001111110010010010010100010110001010000100111100100 %
#84500
1!
b00000000000000000000000000111000 *
b1111101011110100111100100100011111000011110110000001000011110111 +
#84500
#85000
0!
#85000
b1101010110011000001001100001111010100110010110101010100111101110 %
#85500
1!
b00000000000000000000000001100000 *
b0011001111000100001111011000001101101110101011111011000111110101 +
#85500
#86000
0!
#86000
b1000110001011011110110100000110011010110000110010010111001110110 %
#86500
1!
b00000000000000000000000010001000 *
b0100100011101010110101011111110001011101000010111110011101110100 +
#86500
#87000
0!
#87000
b1000000110100101011111000001011011011011110011110101010101011111 %
#87500
1!
b00000000000000000000000010110000 *
b0101101100110100000000100100011001001110000111000011110110110110 +
#87500
#88000
0!
#88000
b0110000100110110011100001001010101111011110001000110011000010001 %
#88500
1!
b00000000000000000000000000011000 *
b1000101000100000110110011011001001010101011010011101000010010100 +
#88500
#89000
0!
#89000
b0001011011110101001101010010011011100111000001000110010111000010 %
#89500
1!
b00000000000000000000000001000000 *
b0001111100011011100111101110011011110111100110101000011101011001 +
#89500
#90000
0!
#90000
b1011110100010101010001110011000001101111100000000100100101001101 %
#90500
1!
b00000000000000000000000001101000 *
b1110000000000110010101000000010000100111000110011101101111011001 +
#90500
#91000
0!
#91000
b1010110100110000101001101111011100011011000110010000010110011100 %
#91500
1!
b00000000000000000000000010010000 *
b1110001110111000110010001110111001010101101101111011000000111100 +
#91500
#92000
0!
#92000
b0100001110111000001100011100110100000011010001111100100000100110 %
#92500
1!
b00000000000000000000000010111000 *
b0110000010011111010011100110001010100100010011000001000001011001 +
#92500
#93000
0!
#93000
b1011100001111100010110100101010101001111110100000000111011001011 %
#93500
1!
b00000000000000000000000000100000 *
b0100111110011100010011111001100111100101111001111111000101010110 +
#93500
#94000
0!
#94000
b0111010111110110010001001110100101111111001100001010000100111011 %
#94500
1!
b00000000000000000000000001001000 *
b1110010011111110110011000000111111101110100110001011010000100101 +
#94500
#95000
0!
#95000
b1000101100101000010011100000010101100010010100111101000001010111 %
#95500
1!
b00000000000000000000000001110000 *
b0111110011111000101010011111000000001001100000110001001001100101 +
#95500
#96000
0!
#96000
b0011000010010011010110101011011111010000100011111111110001100100 %
#96500
1!
b00000000000000000000000010011000 *
b1001000110100000001000100110111001100100100111100100001011101001 +
#96500
#97000
0!
#97000
b0000000111110010001011110001101000010001101001010101011010011111 %
#97500
1!
b00000000000000000000000011000000 *
b0010000011010000011011001101001001101010100011111011111101011100 +
#97500
#98000
0!
#98000
b1000110000111110111010001000101000011100110011110011001011001000 %
#98500
1!
1'
0)
b00000000000000000000000000000000 *
b0000000000000000000000000000000000000000000000000000000000000000 +
b0000000 ,
#98500
#99000
0!
#99000
b1110101011110001111111110111101101011100111011001010001001001001 %
