thesis/experiments/rust-hls-experiments/keccak_rust_size/keccak_rust_size.vcd
$timescale 1 ps $end
$scope module uut $end
$var wire 1 ! clk $end
$var wire 1 " reset $end
$var wire 1 # start_port $end
$var wire 32 $ input_pointer $end
$var wire 64 % m_rdata_ram $end
$var wire 1 & m_data_rdy $end
$var wire 1 ' done_port $end
$var wire 1 ( mout_oe_ram $end
$var wire 1 ) mout_we_ram $end
$var wire 32 * mout_addr_ram $end
$var wire 64 + mout_wdata_ram $end
$var wire 7 , mout_data_ram_size $end
$upscope $end
$enddefinitions $end
$dumpvars
0!
1"
1#
b00000000000000000000000000000000 $
b0000000000000000000000000000000011011110101011011011111011101111 %
0&
0'
0(
0)
b00000000000000000000000000000000 *
b0000000000000000000000000000000000000000000000000000000000000000 +
b0000000 ,
$end
#500
1!
#500
#1000
0!
#1000
b1111000100100101100011110111100101000000111000011101110111100111 %
#1500
1!
#1500
#2000
0!
#2000
#2500
1!
#2500
#3000
0!
#3000
#3500
1!
#3500
#4000
0!
#4000
#4500
1!
#4500
#5000
0!
#5000
#5500
1!
#5500
#6000
0!
#6000
#6500
1!
#6500
#7000
0!
#7000
#7500
1!
#7500
#8000
0!
#8000
#8500
1!
#8500
#9000
0!
#9000
#9500
1!
#9500
#10000
0!
#10000
#10500
1!
#10500
#11000
0!
#11000
#11500
1!
#11500
#12000
0!
#12000
#12500
1!
#12500
#13000
0!
#13000
#13500
1!
#13500
#14000
0!
#14000
#14500
1!
#14500
#15000
0!
#15000
#15500
1!
#15500
#16000
0!
#16000
#16500
1!
#16500
#17000
0!
#17000
#17500
1!
#17500
#18000
0!
#18000
#18500
1!
#18500
#19000
0!
#19000
#19500
1!
#19500
#20000
0!
#20000
#20500
1!
#20500
#21000
0!
#21000
#21500
1!
#21500
#22000
0!
#22000
#22500
1!
#22500
#23000
0!
#23000
#23500
1!
#23500
#24000
0!
#24000
#24500
1!
#24500
#25000
0!
#25000
#25500
1!
#25500
#26000
0!
#26000
#26500
1!
#26500
#27000
0!
#27000
#27500
1!
#27500
#28000
0!
#28000
#28500
1!
#28500
#29000
0!
#29000
#29500
1!
#29500
#30000
0!
#30000
#30500
1!
#30500
#31000
0!
#31000
#31500
1!
#31500
#32000
0!
#32000
#32500
1!
#32500
#33000
0!
#33000
#33500
1!
#33500
#34000
0!
#34000
#34500
1!
#34500
#35000
0!
#35000
#35500
1!
#35500
#36000
0!
#36000
#36500
1!
#36500
#37000
0!
#37000
#37500
1!
#37500
#38000
0!
#38000
#38500
1!
#38500
#39000
0!
#39000
#39500
1!
#39500
#40000
0!
#40000
#40500
1!
#40500
#41000
0!
#41000
#41500
1!
#41500
#42000
0!
#42000
#42500
1!
#42500
#43000
0!
#43000
#43500
1!
#43500
#44000
0!
#44000
#44500
1!
#44500
#45000
0!
#45000
#45500
1!
#45500
#46000
0!
#46000
#46500
1!
#46500
#47000
0!
#47000
#47500
1!
#47500
#48000
0!
#48000
#48500
1!
#48500
#49000
0!
#49000
#49500
1!
#49500
#50000
0!
#50000
#50500
1!
#50500
#51000
0!
#51000
#51500
1!
#51500
#52000
0!
#52000
#52500
1!
#52500
#53000
0!
#53000
#53500
1!
#53500
#54000
0!
#54000
#54500
1!
#54500
#55000
0!
#55000
#55500
1!
#55500
#56000
0!
#56000
#56500
1!
#56500
#57000
0!
#57000
#57500
1!
#57500
#58000
0!
#58000
#58500
1!
#58500
#59000
0!
#59000
#59500
1!
#59500
#60000
0!
#60000
#60500
1!
#60500
#61000
0!
#61000
#61500
1!
#61500
#62000
0!
#62000
#62500
1!
#62500
#63000
0!
#63000
#63500
1!
#63500
#64000
0!
#64000
#64500
1!
#64500
#65000
0!
#65000
#65500
1!
#65500
#66000
0!
#66000
#66500
1!
#66500
#67000
0!
#67000
#67500
1!
#67500
#68000
0!
#68000
#68500
1!
#68500
#69000
0!
#69000
#69500
1!
#69500
#70000
0!
#70000
#70500
1!
#70500
#71000
0!
#71000
#71500
1!
#71500
#72000
0!
#72000
#72500
1!
#72500
#73000
0!
#73000
#73500
1!
#73500
#74000
0!
#74000
#74500
1!
#74500
#75000
0!
#75000
#75500
1!
#75500
#76000
0!
#76000
#76500
1!
#76500
#77000
0!
#77000
#77500
1!
#77500
#78000
0!
#78000
#78500
1!
#78500
#79000
0!
#79000
#79500
1!
#79500
#80000
0!
#80000
#80500
1!
#80500
#81000
0!
#81000
#81500
1!
#81500
#82000
0!
#82000
#82500
1!
#82500
#83000
0!
#83000
#83500
1!
#83500
#84000
0!
#84000
#84500
1!
#84500
#85000
0!
#85000
#85500
1!
#85500
#86000
0!
#86000
#86500
1!
#86500
#87000
0!
#87000
#87500
1!
#87500
#88000
0!
#88000
#88500
1!
#88500
#89000
0!
#89000
#89500
1!
#89500
#90000
0!
#90000
#90500
1!
#90500
#91000
0!
#91000
#91500
1!
#91500
#92000
0!
#92000
#92500
1!
#92500
#93000
0!
#93000
#93500
1!
#93500
#94000
0!
#94000
#94500
1!
#94500
#95000
0!
#95000
#95500
1!
#95500
#96000
0!
#96000
#96500
1!
#96500
#97000
0!
#97000
#97500
1!
#97500
#98000
0!
#98000
#98500
1!
#98500
#99000
0!
#99000
#99500
1!
#99500
#100000
0!
#100000
#100500
1!
#100500
#101000
0!
#101000
#101500
1!
#101500
#102000
0!
#102000
#102500
1!
#102500
#103000
0!
#103000
#103500
1!
#103500
#104000
0!
#104000
#104500
1!
#104500
#105000
0!
#105000
#105500
1!
#105500
#106000
0!
#106000
#106500
1!
#106500
#107000
0!
#107000
#107500
1!
#107500
#108000
0!
#108000
#108500
1!
#108500
#109000
0!
#109000
#109500
1!
#109500
#110000
0!
#110000
#110500
1!
#110500
#111000
0!
#111000
#111500
1!
#111500
#112000
0!
#112000
#112500
1!
#112500
#113000
0!
#113000
#113500
1!
#113500
#114000
0!
#114000
#114500
1!
#114500
#115000
0!
#115000
#115500
1!
#115500
#116000
0!
#116000
#116500
1!
#116500
#117000
0!
#117000
#117500
1!
#117500
#118000
0!
#118000
#118500
1!
#118500
#119000
0!
#119000
#119500
1!
#119500
#120000
0!
#120000
#120500
1!
#120500
#121000
0!
#121000
#121500
1!
#121500
#122000
0!
#122000
#122500
1!
#122500
#123000
0!
#123000
#123500
1!
#123500
#124000
0!
#124000
#124500
1!
#124500
#125000
0!
#125000
#125500
1!
#125500
#126000
0!
#126000
#126500
1!
#126500
#127000
0!
#127000
#127500
1!
#127500
#128000
0!
#128000
#128500
1!
#128500
#129000
0!
#129000
#129500
1!
#129500
#130000
0!
#130000
#130500
1!
#130500
#131000
0!
#131000
#131500
1!
#131500
#132000
0!
#132000
#132500
1!
#132500
#133000
0!
#133000
#133500
1!
#133500
#134000
0!
#134000
#134500
1!
#134500
#135000
0!
#135000
#135500
1!
#135500
#136000
0!
#136000
#136500
1!
#136500
#137000
0!
#137000
#137500
1!
#137500
#138000
0!
#138000
#138500
1!
#138500
#139000
0!
#139000
#139500
1!
#139500
#140000
0!
#140000
#140500
1!
#140500
#141000
0!
#141000
#141500
1!
#141500
#142000
0!
#142000
#142500
1!
#142500
#143000
0!
#143000
#143500
1!
#143500
#144000
0!
#144000
#144500
1!
#144500
#145000
0!
#145000
#145500
1!
#145500
#146000
0!
#146000
#146500
1!
#146500
#147000
0!
#147000
#147500
1!
#147500
#148000
0!
#148000
#148500
1!
#148500
#149000
0!
#149000
#149500
1!
#149500
#150000
0!
#150000
#150500
1!
#150500
#151000
0!
#151000
#151500
1!
#151500
#152000
0!
#152000
#152500
1!
#152500
#153000
0!
#153000
#153500
1!
#153500
#154000
0!
#154000
#154500
1!
#154500
#155000
0!
#155000
#155500
1!
#155500
#156000
0!
#156000
#156500
1!
#156500
#157000
0!
#157000
#157500
1!
#157500
#158000
0!
#158000
#158500
1!
#158500
#159000
0!
#159000
#159500
1!
#159500
#160000
0!
#160000
#160500
1!
#160500
#161000
0!
#161000
#161500
1!
1(
b1000000 ,
#161500
#162000
0!
#162000
#162500
1!
b00000000000000000000000000101000 *
#162500
#163000
0!
#163000
#163500
1!
b00000000000000000000000001010000 *
#163500
#164000
0!
#164000
b1111111110010111101001000010110101111111100011100110111111010100 %
#164500
1!
b00000000000000000000000010100000 *
#164500
#165000
0!
#165000
b1110101101011010101010010011111100100011000101111101011000110101 %
#165500
1!
b00000000000000000000000001111000 *
#165500
#166000
0!
#166000
b1001010000001100011110010010001010101110001110100010011000010100 %
#166500
1!
0(
b00000000000000000000000000000000 *
b0000000 ,
#166500
#167000
0!
#167000
b0000010111100101011000110101101000100001110110011010111001100001 %
#167500
1!
#167500
#168000
0!
#168000
b1111000100100101100011110111100101000000111000011101110111100111 %
#168500
1!
1(
b00000000000000000000000000001000 *
b1000000 ,
#168500
#169000
0!
#169000
#169500
1!
b00000000000000000000000000110000 *
#169500
#170000
0!
#170000
b1000010011010101110011001111100100110011110000000100011110001010 %
#170500
1!
b00000000000000000000000001011000 *
#170500
#171000
0!
#171000
b1001000011111110111001011010000010100100010001100100011111000100 %
#171500
1!
b00000000000000000000000010101000 *
#171500
#172000
0!
#172000
b1010100110100110111001100010011000001101011100010010000100000011 %
#172500
1!
b00000000000000000000000010000000 *
#172500
#173000
0!
#173000
b0001100001000001111110010010010010100010110001010000100111100100 %
#173500
1!
0(
b00000000000000000000000000000000 *
b0000000 ,
#173500
#174000
0!
#174000
b0110010010111110111111101111001010001100110010010111000011110010 %
#174500
1!
#174500
#175000
0!
#175000
b1111000100100101100011110111100101000000111000011101110111100111 %
#175500
1!
1(
b00000000000000000000000000010000 *
b1000000 ,
#175500
#176000
0!
#176000
#176500
1!
b00000000000000000000000000111000 *
#176500
#177000
0!
#177000
b1101010110011000001001100001111010100110010110101010100111101110 %
#177500
1!
b00000000000000000000000001100000 *
#177500
#178000
0!
#178000
b1000110001011011110110100000110011010110000110010010111001110110 %
#178500
1!
b00000000000000000000000010110000 *
#178500
#179000
0!
#179000
b1000000110100101011111000001011011011011110011110101010101011111 %
#179500
1!
b00000000000000000000000010001000 *
#179500
#180000
0!
#180000
b0001011011110101001101010010011011100111000001000110010111000010 %
#180500
1!
0(
b00000000000000000000000000000000 *
b0000000 ,
#180500
#181000
0!
#181000
b0110000100110110011100001001010101111011110001000110011000010001 %
#181500
1!
#181500
#182000
0!
#182000
b1111000100100101100011110111100101000000111000011101110111100111 %
#182500
1!
1(
b00000000000000000000000000011000 *
b1000000 ,
#182500
#183000
0!
#183000
#183500
1!
b00000000000000000000000001000000 *
#183500
#184000
0!
#184000
b1011110100010101010001110011000001101111100000000100100101001101 %
#184500
1!
b00000000000000000000000001101000 *
#184500
#185000
0!
#185000
b1010110100110000101001101111011100011011000110010000010110011100 %
#185500
1!
b00000000000000000000000010111000 *
#185500
#186000
0!
#186000
b0100001110111000001100011100110100000011010001111100100000100110 %
#186500
1!
b00000000000000000000000010010000 *
#186500
#187000
0!
#187000
b0111010111110110010001001110100101111111001100001010000100111011 %
#187500
1!
0(
b00000000000000000000000000000000 *
b0000000 ,
#187500
#188000
0!
#188000
b1011100001111100010110100101010101001111110100000000111011001011 %
#188500
1!
#188500
#189000
0!
#189000
b1111000100100101100011110111100101000000111000011101110111100111 %
#189500
1!
1(
b00000000000000000000000000100000 *
b1000000 ,
#189500
#190000
0!
#190000
#190500
1!
b00000000000000000000000001001000 *
#190500
#191000
0!
#191000
b1000101100101000010011100000010101100010010100111101000001010111 %
#191500
1!
b00000000000000000000000001110000 *
#191500
#192000
0!
#192000
b0011000010010011010110101011011111010000100011111111110001100100 %
#192500
1!
b00000000000000000000000011000000 *
#192500
#193000
0!
#193000
b0000000111110010001011110001101000010001101001010101011010011111 %
#193500
1!
b00000000000000000000000010011000 *
#193500
#194000
0!
#194000
b1110101011110001111111110111101101011100111011001010001001001001 %
#194500
1!
0(
b00000000000000000000000000000000 *
b0000000 ,
#194500
#195000
0!
#195000
b1000110000111110111010001000101000011100110011110011001011001000 %
#195500
1!
#195500
#196000
0!
#196000
b1111000100100101100011110111100101000000111000011101110111100111 %
#196500
1!
#196500
#197000
0!
#197000
#197500
1!
#197500
#198000
0!
#198000
#198500
1!
#198500
#199000
0!
#199000
#199500
1!
#199500
#200000
0!
#200000
#200500
1!
#200500
#201000
0!
#201000
#201500
1!
#201500
#202000
0!
#202000
#202500
1!
#202500
#203000
0!
#203000
#203500
1!
#203500
#204000
0!
#204000
#204500
1!
#204500
#205000
0!
#205000
#205500
1!
1(
b1000000 ,
#205500
#206000
0!
#206000
#206500
1!
0(
b0000000 ,
#206500
#207000
0!
#207000
#207500
1!
1)
b1010111101000110001100100111001111001010010011011000011101111101 +
b1000000 ,
#207500
#208000
0!
#208000
#208500
1!
0)
b0000000000000000000000000000000000000000000000000000000000000000 +
b0000000 ,
#208500
#209000
0!
#209000
#209500
1!
#209500
#210000
0!
#210000
b1010111101000110001100100111001111001010010011011000011101111101 %
#210500
1!
1(
b00000000000000000000000000101000 *
b1000000 ,
#210500
#211000
0!
#211000
#211500
1!
0(
b00000000000000000000000000000000 *
b0000000 ,
#211500
#212000
0!
#212000
b1111111110010111101001000010110101111111100011100110111111010100 %
#212500
1!
1)
b00000000000000000000000000101000 *
b1010000111110100000110010010011111110101001000100011010101001110 +
b1000000 ,
#212500
#213000
0!
#213000
b1010111101000110001100100111001111001010010011011000011101111101 %
#213500
1!
0)
b00000000000000000000000000000000 *
b0000000000000000000000000000000000000000000000000000000000000000 +
b0000000 ,
#213500
#214000
0!
#214000
b1111111110010111101001000010110101111111100011100110111111010100 %
#214500
1!
#214500
#215000
0!
#215000
b1010111101000110001100100111001111001010010011011000011101111101 %
#215500
1!
1(
b00000000000000000000000001010000 *
b1000000 ,
#215500
#216000
0!
#216000
#216500
1!
0(
b00000000000000000000000000000000 *
b0000000 ,
#216500
#217000
0!
#217000
b1110101101011010101010010011111100100011000101111101011000110101 %
#217500
1!
1)
b00000000000000000000000001010000 *
b1011010100111001000101000011010110101001101110111000110010101111 +
b1000000 ,
#217500
#218000
0!
#218000
b1010111101000110001100100111001111001010010011011000011101111101 %
#218500
1!
0)
b00000000000000000000000000000000 *
b0000000000000000000000000000000000000000000000000000000000000000 +
b0000000 ,
#218500
#219000
0!
#219000
b1110101101011010101010010011111100100011000101111101011000110101 %
#219500
1!
#219500
#220000
0!
#220000
b1010111101000110001100100111001111001010010011011000011101111101 %
#220500
1!
1(
b00000000000000000000000001111000 *
b1000000 ,
#220500
#221000
0!
#221000
#221500
1!
0(
b00000000000000000000000000000000 *
b0000000 ,
#221500
#222000
0!
#222000
b0000010111100101011000110101101000100001110110011010111001100001 %
#222500
1!
1)
b00000000000000000000000001111000 *
b0101101110000110110111100101000010101011011101011111010011111011 +
b1000000 ,
#222500
#223000
0!
#223000
b1010111101000110001100100111001111001010010011011000011101111101 %
#223500
1!
0)
b00000000000000000000000000000000 *
b0000000000000000000000000000000000000000000000000000000000000000 +
b0000000 ,
#223500
#224000
0!
#224000
b0000010111100101011000110101101000100001110110011010111001100001 %
#224500
1!
#224500
#225000
0!
#225000
b1010111101000110001100100111001111001010010011011000011101111101 %
#225500
1!
1(
b00000000000000000000000010100000 *
b1000000 ,
#225500
#226000
0!
#226000
#226500
1!
0(
b00000000000000000000000000000000 *
b0000000 ,
#226500
#227000
0!
#227000
b1001010000001100011110010010001010101110001110100010011000010100 %
#227500
1!
1)
b00000000000000000000000010100000 *
b1100101001101111110001000010100000100100100101100111110010001110 +
b1000000 ,
#227500
#228000
0!
#228000
b1010111101000110001100100111001111001010010011011000011101111101 %
#228500
1!
0)
b00000000000000000000000000000000 *
b0000000000000000000000000000000000000000000000000000000000000000 +
b0000000 ,
#228500
#229000
0!
#229000
b1001010000001100011110010010001010101110001110100010011000010100 %
#229500
1!
#229500
#230000
0!
#230000
b1010111101000110001100100111001111001010010011011000011101111101 %
#230500
1!
#230500
#231000
0!
#231000
#231500
1!
#231500
#232000
0!
#232000
#232500
1!
#232500
#233000
0!
#233000
#233500
1!
#233500
#234000
0!
#234000
#234500
1!
#234500
#235000
0!
#235000
#235500
1!
#235500
#236000
0!
#236000
#236500
1!
#236500
#237000
0!
#237000
#237500
1!
1(
b00000000000000000000000000001000 *
b1000000 ,
#237500
#238000
0!
#238000
#238500
1!
0(
b00000000000000000000000000000000 *
b0000000 ,
#238500
#239000
0!
#239000
b1000010011010101110011001111100100110011110000000100011110001010 %
#239500
1!
1)
b00000000000000000000000000001000 *
b1010111110011111110111111000010011001110110000100000100111010000 +
b1000000 ,
#239500
#240000
0!
#240000
b1010111101000110001100100111001111001010010011011000011101111101 %
#240500
1!
0)
b00000000000000000000000000000000 *
b0000000000000000000000000000000000000000000000000000000000000000 +
b0000000 ,
#240500
#241000
0!
#241000
b1000010011010101110011001111100100110011110000000100011110001010 %
#241500
1!
#241500
#242000
0!
#242000
b1010111101000110001100100111001111001010010011011000011101111101 %
#242500
1!
1(
b00000000000000000000000000110000 *
b1000000 ,
#242500
#243000
0!
#243000
#243500
1!
0(
b00000000000000000000000000000000 *
b0000000 ,
#243500
#244000
0!
#244000
b1001000011111110111001011010000010100100010001100100011111000100 %
#244500
1!
1)
b00000000000000000000000000110000 *
b1011101110110100111101101101110101011001010001000000100110011110 +
b1000000 ,
#244500
#245000
0!
#245000
b1010111101000110001100100111001111001010010011011000011101111101 %
#245500
1!
0)
b00000000000000000000000000000000 *
b0000000000000000000000000000000000000000000000000000000000000000 +
b0000000 ,
#245500
#246000
0!
#246000
b1001000011111110111001011010000010100100010001100100011111000100 %
#246500
1!
#246500
#247000
0!
#247000
b1010111101000110001100100111001111001010010011011000011101111101 %
#247500
1!
1(
b00000000000000000000000001011000 *
b1000000 ,
#247500
#248000
0!
#248000
#248500
1!
0(
b00000000000000000000000000000000 *
b0000000 ,
#248500
#249000
0!
#249000
b1010100110100110111001100010011000001101011100010010000100000011 %
#249500
1!
1)
b00000000000000000000000001011000 *
b1000001011101100111101010101101111110000011100110110111101011001 +
b1000000 ,
#249500
#250000
0!
#250000
b1010111101000110001100100111001111001010010011011000011101111101 %
#250500
1!
0)
b00000000000000000000000000000000 *
b0000000000000000000000000000000000000000000000000000000000000000 +
b0000000 ,
#250500
#251000
0!
#251000
b1010100110100110111001100010011000001101011100010010000100000011 %
#251500
1!
#251500
#252000
0!
#252000
b1010111101000110001100100111001111001010010011011000011101111101 %
#252500
1!
1(
b00000000000000000000000010000000 *
b1000000 ,
#252500
#253000
0!
#253000
#253500
1!
0(
b00000000000000000000000000000000 *
b0000000 ,
#253500
#254000
0!
#254000
b0110010010111110111111101111001010001100110010010111000011110010 %
#254500
1!
1)
b00000000000000000000000010000000 *
b0100111111110100111011011000111101110001110010110011111010101000 +
b1000000 ,
#254500
#255000
0!
#255000
b1010111101000110001100100111001111001010010011011000011101111101 %
#255500
1!
0)
b00000000000000000000000000000000 *
b0000000000000000000000000000000000000000000000000000000000000000 +
b0000000 ,
#255500
#256000
0!
#256000
b0110010010111110111111101111001010001100110010010111000011110010 %
#256500
1!
#256500
#257000
0!
#257000
b1010111101000110001100100111001111001010010011011000011101111101 %
#257500
1!
1(
b00000000000000000000000010101000 *
b1000000 ,
#257500
#258000
0!
#258000
#258500
1!
0(
b00000000000000000000000000000000 *
b0000000 ,
#258500
#259000
0!
#259000
b0001100001000001111110010010010010100010110001010000100111100100 %
#259500
1!
1)
b00000000000000000000000010101000 *
b0011001100001011111010100101100101011111110001110100011110111110 +
b1000000 ,
#259500
#260000
0!
#260000
b1010111101000110001100100111001111001010010011011000011101111101 %
#260500
1!
0)
b00000000000000000000000000000000 *
b0000000000000000000000000000000000000000000000000000000000000000 +
b0000000 ,
#260500
#261000
0!
#261000
b0001100001000001111110010010010010100010110001010000100111100100 %
#261500
1!
#261500
#262000
0!
#262000
b1010111101000110001100100111001111001010010011011000011101111101 %
#262500
1!
#262500
#263000
0!
#263000
#263500
1!
#263500
#264000
0!
#264000
#264500
1!
#264500
#265000
0!
#265000
#265500
1!
#265500
#266000
0!
#266000
#266500
1!
#266500
#267000
0!
#267000
#267500
1!
#267500
#268000
0!
#268000
#268500
1!
#268500
#269000
0!
#269000
#269500
1!
1(
b00000000000000000000000000010000 *
b1000000 ,
#269500
#270000
0!
#270000
#270500
1!
0(
b00000000000000000000000000000000 *
b0000000 ,
#270500
#271000
0!
#271000
b1101010110011000001001100001111010100110010110101010100111101110 %
#271500
1!
1)
b00000000000000000000000000010000 *
b0010100011000101011100111101101110011100110111011010011110111010 +
b1000000 ,
#271500
#272000
0!
#272000
b1010111101000110001100100111001111001010010011011000011101111101 %
#272500
1!
0)
b00000000000000000000000000000000 *
b0000000000000000000000000000000000000000000000000000000000000000 +
b0000000 ,
#272500
#273000
0!
#273000
b1101010110011000001001100001111010100110010110101010100111101110 %
#273500
1!
#273500
#274000
0!
#274000
b1010111101000110001100100111001111001010010011011000011101111101 %
#274500
1!
1(
b00000000000000000000000000111000 *
b1000000 ,
#274500
#275000
0!
#275000
#275500
1!
0(
b00000000000000000000000000000000 *
b0000000 ,
#275500
#276000
0!
#276000
b1000110001011011110110100000110011010110000110010010111001110110 %
#276500
1!
1)
b00000000000000000000000000111000 *
b0111000100000110100011111100100111101100100111100010000000100010 +
b1000000 ,
#276500
#277000
0!
#277000
b1010111101000110001100100111001111001010010011011000011101111101 %
#277500
1!
0)
b00000000000000000000000000000000 *
b0000000000000000000000000000000000000000000000000000000000000000 +
b0000000 ,
#277500
#278000
0!
#278000
b1000110001011011110110100000110011010110000110010010111001110110 %
#278500
1!
#278500
#279000
0!
#279000
b1010111101000110001100100111001111001010010011011000011101111101 %
#279500
1!
1(
b00000000000000000000000001100000 *
b1000000 ,
#279500
#280000
0!
#280000
#280500
1!
0(
b00000000000000000000000000000000 *
b0000000 ,
#280500
#281000
0!
#281000
b1000000110100101011111000001011011011011110011110101010101011111 %
#281500
1!
1)
b00000000000000000000000001100000 *
b0111110011111000001010011101001111100001010010000101101100001011 +
b1000000 ,
#281500
#282000
0!
#282000
b1010111101000110001100100111001111001010010011011000011101111101 %
#282500
1!
0)
b00000000000000000000000000000000 *
b0000000000000000000000000000000000000000000000000000000000000000 +
b0000000 ,
#282500
#283000
0!
#283000
b1000000110100101011111000001011011011011110011110101010101011111 %
#283500
1!
#283500
#284000
0!
#284000
b1010111101000110001100100111001111001010010011011000011101111101 %
#284500
1!
1(
b00000000000000000000000010001000 *
b1000000 ,
#284500
#285000
0!
#285000
#285500
1!
0(
b00000000000000000000000000000000 *
b0000000 ,
#285500
#286000
0!
#286000
b0110000100110110011100001001010101111011110001000110011000010001 %
#286500
1!
1)
b00000000000000000000000010001000 *
b1001110001101011001001010101000001000001010000110110100001000101 +
b1000000 ,
#286500
#287000
0!
#287000
b1010111101000110001100100111001111001010010011011000011101111101 %
#287500
1!
0)
b00000000000000000000000000000000 *
b0000000000000000000000000000000000000000000000000000000000000000 +
b0000000 ,
#287500
#288000
0!
#288000
b0110000100110110011100001001010101111011110001000110011000010001 %
#288500
1!
#288500
#289000
0!
#289000
b1010111101000110001100100111001111001010010011011000011101111101 %
#289500
1!
1(
b00000000000000000000000010110000 *
b1000000 ,
#289500
#290000
0!
#290000
#290500
1!
0(
b00000000000000000000000000000000 *
b0000000 ,
#290500
#291000
0!
#291000
b0001011011110101001101010010011011100111000001000110010111000010 %
#291500
1!
1)
b00000000000000000000000010110000 *
b1110101110101000011000001110001111011101100000110110101110010110 +
b1000000 ,
#291500
#292000
0!
#292000
b1010111101000110001100100111001111001010010011011000011101111101 %
#292500
1!
0)
b00000000000000000000000000000000 *
b0000000000000000000000000000000000000000000000000000000000000000 +
b0000000 ,
#292500
#293000
0!
#293000
b0001011011110101001101010010011011100111000001000110010111000010 %
#293500
1!
#293500
#294000
0!
#294000
b1010111101000110001100100111001111001010010011011000011101111101 %
#294500
1!
#294500
#295000
0!
#295000
#295500
1!
#295500
#296000
0!
#296000
#296500
1!
#296500
#297000
0!
#297000
#297500
1!
#297500
#298000
0!
#298000
#298500
1!
#298500
#299000
0!
#299000
#299500
1!
#299500
#300000
0!
#300000
#300500
1!
#300500
#301000
0!
#301000
#301500
1!
1(
b00000000000000000000000000011000 *
b1000000 ,
#301500
#302000
0!
#302000
#302500
1!
0(
b00000000000000000000000000000000 *
b0000000 ,
#302500
#303000
0!
#303000
b1011110100010101010001110011000001101111100000000100100101001101 %
#303500
1!
1)
b00000000000000000000000000011000 *
b1010101110111100110110100011010010011110011110010100110000000010 +
b1000000 ,
#303500
#304000
0!
#304000
b1010111101000110001100100111001111001010010011011000011101111101 %
#304500
1!
0)
b00000000000000000000000000000000 *
b0000000000000000000000000000000000000000000000000000000000000000 +
b0000000 ,
#304500
#305000
0!
#305000
b1011110100010101010001110011000001101111100000000100100101001101 %
#305500
1!
#305500
#306000
0!
#306000
b1010111101000110001100100111001111001010010011011000011101111101 %
#306500
1!
1(
b00000000000000000000000001000000 *
b1000000 ,
#306500
#307000
0!
#307000
#307500
1!
0(
b00000000000000000000000000000000 *
b0000000 ,
#307500
#308000
0!
#308000
b1010110100110000101001101111011100011011000110010000010110011100 %
#308500
1!
1)
b00000000000000000000000001000000 *
b1011101110011001001110111111001111101010111000000000000011010011 +
b1000000 ,
#308500
#309000
0!
#309000
b1010111101000110001100100111001111001010010011011000011101111101 %
#309500
1!
0)
b00000000000000000000000000000000 *
b0000000000000000000000000000000000000000000000000000000000000000 +
b0000000 ,
#309500
#310000
0!
#310000
b1010110100110000101001101111011100011011000110010000010110011100 %
#310500
1!
#310500
#311000
0!
#311000
b1010111101000110001100100111001111001010010011011000011101111101 %
#311500
1!
1(
b00000000000000000000000001101000 *
b1000000 ,
#311500
#312000
0!
#312000
#312500
1!
0(
b00000000000000000000000000000000 *
b0000000 ,
#312500
#313000
0!
#313000
b0100001110111000001100011100110100000011010001111100100000100110 %
#313500
1!
1)
b00000000000000000000000001101000 *
b0101010100010001101011001100100111110010101111101100110101101001 +
b1000000 ,
#313500
#314000
0!
#314000
b1010111101000110001100100111001111001010010011011000011101111101 %
#314500
1!
0)
b00000000000000000000000000000000 *
b0000000000000000000000000000000000000000000000000000000000000000 +
b0000000 ,
#314500
#315000
0!
#315000
b0100001110111000001100011100110100000011010001111100100000100110 %
#315500
1!
#315500
#316000
0!
#316000
b1010111101000110001100100111001111001010010011011000011101111101 %
#316500
1!
1(
b00000000000000000000000010010000 *
b1000000 ,
#316500
#317000
0!
#317000
#317500
1!
0(
b00000000000000000000000000000000 *
b0000000 ,
#317500
#318000
0!
#318000
b1011100001111100010110100101010101001111110100000000111011001011 %
#318500
1!
1)
b00000000000000000000000010010000 *
b1010111011010101110001110101000110111110001010010000101110000100 +
b1000000 ,
#318500
#319000
0!
#319000
b1010111101000110001100100111001111001010010011011000011101111101 %
#319500
1!
0)
b00000000000000000000000000000000 *
b0000000000000000000000000000000000000000000000000000000000000000 +
b0000000 ,
#319500
#320000
0!
#320000
b1011100001111100010110100101010101001111110100000000111011001011 %
#320500
1!
#320500
#321000
0!
#321000
b1010111101000110001100100111001111001010010011011000011101111101 %
#321500
1!
1(
b00000000000000000000000010111000 *
b1000000 ,
#321500
#322000
0!
#322000
#322500
1!
0(
b00000000000000000000000000000000 *
b0000000 ,
#322500
#323000
0!
#323000
b0111010111110110010001001110100101111111001100001010000100111011 %
#323500
1!
1)
b00000000000000000000000010111000 *
b0110001101011111110110011110110110001110110010011010010001110100 +
b1000000 ,
#323500
#324000
0!
#324000
b1010111101000110001100100111001111001010010011011000011101111101 %
#324500
1!
0)
b00000000000000000000000000000000 *
b0000000000000000000000000000000000000000000000000000000000000000 +
b0000000 ,
#324500
#325000
0!
#325000
b0111010111110110010001001110100101111111001100001010000100111011 %
#325500
1!
#325500
#326000
0!
#326000
b1010111101000110001100100111001111001010010011011000011101111101 %
#326500
1!
#326500
#327000
0!
#327000
#327500
1!
#327500
#328000
0!
#328000
#328500
1!
#328500
#329000
0!
#329000
#329500
1!
#329500
#330000
0!
#330000
#330500
1!
#330500
#331000
0!
#331000
#331500
1!
#331500
#332000
0!
#332000
#332500
1!
#332500
#333000
0!
#333000
#333500
1!
1(
b00000000000000000000000000100000 *
b1000000 ,
#333500
#334000
0!
#334000
#334500
1!
0(
b00000000000000000000000000000000 *
b0000000 ,
#334500
#335000
0!
#335000
b1000101100101000010011100000010101100010010100111101000001010111 %
#335500
1!
1)
b00000000000000000000000000100000 *
b1111110100111100101100001001010000000010010110100010001110110110 +
b1000000 ,
#335500
#336000
0!
#336000
b1010111101000110001100100111001111001010010011011000011101111101 %
#336500
1!
0)
b00000000000000000000000000000000 *
b0000000000000000000000000000000000000000000000000000000000000000 +
b0000000 ,
#336500
#337000
0!
#337000
b1000101100101000010011100000010101100010010100111101000001010111 %
#337500
1!
#337500
#338000
0!
#338000
b1010111101000110001100100111001111001010010011011000011101111101 %
#338500
1!
1(
b00000000000000000000000001001000 *
b1000000 ,
#338500
#339000
0!
#339000
#339500
1!
0(
b00000000000000000000000000000000 *
b0000000 ,
#339500
#340000
0!
#340000
b0011000010010011010110101011011111010000100011111111110001100100 %
#340500
1!
1)
b00000000000000000000000001001000 *
b0100011010000111101001000010011010110000100001100000111110000101 +
b1000000 ,
#340500
#341000
0!
#341000
b1010111101000110001100100111001111001010010011011000011101111101 %
#341500
1!
0)
b00000000000000000000000000000000 *
b0000000000000000000000000000000000000000000000000000000000000000 +
b0000000 ,
#341500
#342000
0!
#342000
b0011000010010011010110101011011111010000100011111111110001100100 %
#342500
1!
#342500
#343000
0!
#343000
b1010111101000110001100100111001111001010010011011000011101111101 %
#343500
1!
1(
b00000000000000000000000001110000 *
b1000000 ,
#343500
#344000
0!
#344000
#344500
1!
0(
b00000000000000000000000000000000 *
b0000000 ,
#344500
#345000
0!
#345000
b0000000111110010001011110001101000010001101001010101011010011111 %
